^C:\USERS\BLOND\DOWNLOADS\SCRIPTHOOKV_SDK_1.0.617.1A\SAMPLES\NATIVETRAINER\KEYBOARD.CPP|C:\USERS\BLOND\DOWNLOADS\SCRIPTHOOKV_SDK_1.0.617.1A\SAMPLES\NATIVETRAINER\MAIN.CPP|C:\USERS\BLOND\DOWNLOADS\SCRIPTHOOKV_SDK_1.0.617.1A\SAMPLES\NATIVETRAINER\SCRIPT.CPP
C:\USERS\BLOND\DOWNLOADS\SCRIPTHOOKV_SDK_1.0.617.1A\SAMPLES\NATIVETRAINER\TMP\RELEASE\VC142.PDB
C:\USERS\BLOND\DOWNLOADS\SCRIPTHOOKV_SDK_1.0.617.1A\SAMPLES\NATIVETRAINER\TMP\RELEASE\SCRIPT.OBJ
C:\USERS\BLOND\DOWNLOADS\SCRIPTHOOKV_SDK_1.0.617.1A\SAMPLES\NATIVETRAINER\TMP\RELEASE\MAIN.OBJ
C:\USERS\BLOND\DOWNLOADS\SCRIPTHOOKV_SDK_1.0.617.1A\SAMPLES\NATIVETRAINER\TMP\RELEASE\KEYBOARD.OBJ
^C:\USERS\BLOND\DOWNLOADS\SCRIPTHOOKV_SDK_1.0.617.1A\SAMPLES\NATIVETRAINER\KEYBOARD.CPP
C:\USERS\BLOND\DOWNLOADS\SCRIPTHOOKV_SDK_1.0.617.1A\SAMPLES\NATIVETRAINER\TMP\RELEASE\VC142.PDB
^C:\USERS\BLOND\DOWNLOADS\SCRIPTHOOKV_SDK_1.0.617.1A\SAMPLES\NATIVETRAINER\MAIN.CPP
C:\USERS\BLOND\DOWNLOADS\SCRIPTHOOKV_SDK_1.0.617.1A\SAMPLES\NATIVETRAINER\TMP\RELEASE\VC142.PDB
^C:\USERS\BLOND\DOWNLOADS\SCRIPTHOOKV_SDK_1.0.617.1A\SAMPLES\NATIVETRAINER\SCRIPT.CPP
C:\USERS\BLOND\DOWNLOADS\SCRIPTHOOKV_SDK_1.0.617.1A\SAMPLES\NATIVETRAINER\TMP\RELEASE\VC142.PDB
C:\USERS\BLOND\DOWNLOADS\SCRIPTHOOKV_SDK_1.0.617.1A\SAMPLES\NATIVETRAINER\TMP\RELEASE\SCRIPT.OBJ
