^C:\Users\blond\Downloads\ScriptHookV_SDK_1.0.617.1a\samples\NativeTrainer\NativeTrainer.vcxproj
C:\Users\blond\Downloads\ScriptHookV_SDK_1.0.617.1a\samples\NativeTrainer\bin\Release\NativeTrainer.ipdb
C:\Users\blond\Downloads\ScriptHookV_SDK_1.0.617.1a\samples\NativeTrainer\bin\Release\NativeTrainer.iobj
^C:\Users\blond\Downloads\ScriptHookV_SDK_1.0.617.1a\samples\NativeTrainer\NativeTrainer.vcxproj
C:\Users\blond\Downloads\ScriptHookV_SDK_1.0.617.1a\samples\NativeTrainer\bin\Release\NativeTrainer.ipdb
C:\Users\blond\Downloads\ScriptHookV_SDK_1.0.617.1a\samples\NativeTrainer\bin\Release\NativeTrainer.iobj
^C:\Users\blond\Downloads\ScriptHookV_SDK_1.0.617.1a\samples\NativeTrainer\NativeTrainer.vcxproj
C:\Users\blond\Downloads\ScriptHookV_SDK_1.0.617.1a\samples\NativeTrainer\bin\Release\NativeTrainer.ipdb
C:\Users\blond\Downloads\ScriptHookV_SDK_1.0.617.1a\samples\NativeTrainer\bin\Release\NativeTrainer.iobj
^C:\Users\blond\Downloads\ScriptHookV_SDK_1.0.617.1a\samples\NativeTrainer\NativeTrainer.vcxproj
C:\Users\blond\Downloads\ScriptHookV_SDK_1.0.617.1a\samples\NativeTrainer\bin\Release\NativeTrainer.ipdb
C:\Users\blond\Downloads\ScriptHookV_SDK_1.0.617.1a\samples\NativeTrainer\bin\Release\NativeTrainer.iobj
^C:\Users\blond\Downloads\ScriptHookV_SDK_1.0.617.1a\samples\NativeTrainer\NativeTrainer.vcxproj
C:\Users\blond\Downloads\ScriptHookV_SDK_1.0.617.1a\samples\NativeTrainer\bin\Release\NativeTrainer.ipdb
C:\Users\blond\Downloads\ScriptHookV_SDK_1.0.617.1a\samples\NativeTrainer\bin\Release\NativeTrainer.iobj
^C:\Users\blond\Downloads\ScriptHookV_SDK_1.0.617.1a\samples\NativeTrainer\NativeTrainer.vcxproj
C:\Users\blond\Downloads\ScriptHookV_SDK_1.0.617.1a\samples\NativeTrainer\bin\Release\NativeTrainer.ipdb
C:\Users\blond\Downloads\ScriptHookV_SDK_1.0.617.1a\samples\NativeTrainer\bin\Release\NativeTrainer.iobj
^C:\Users\blond\Downloads\ScriptHookV_SDK_1.0.617.1a\samples\NativeTrainer\NativeTrainer.vcxproj
C:\Users\blond\Downloads\ScriptHookV_SDK_1.0.617.1a\samples\NativeTrainer\bin\Release\NativeTrainer.ipdb
C:\Users\blond\Downloads\ScriptHookV_SDK_1.0.617.1a\samples\NativeTrainer\bin\Release\NativeTrainer.iobj
^C:\Users\blond\Downloads\ScriptHookV_SDK_1.0.617.1a\samples\NativeTrainer\NativeTrainer.vcxproj
C:\Users\blond\Downloads\ScriptHookV_SDK_1.0.617.1a\samples\NativeTrainer\bin\Release\NativeTrainer.ipdb
C:\Users\blond\Downloads\ScriptHookV_SDK_1.0.617.1a\samples\NativeTrainer\bin\Release\NativeTrainer.iobj
^C:\Users\blond\Downloads\ScriptHookV_SDK_1.0.617.1a\samples\NativeTrainer\NativeTrainer.vcxproj
C:\Program Files\Rockstar Games\Grand Theft Auto V\NativeTrainer.ipdb
C:\Program Files\Rockstar Games\Grand Theft Auto V\NativeTrainer.iobj
^C:\Users\blond\Downloads\ScriptHookV_SDK_1.0.617.1a\samples\NativeTrainer\NativeTrainer.vcxproj
C:\Program Files\Rockstar Games\Grand Theft Auto V\NativeTrainer.ipdb
C:\Program Files\Rockstar Games\Grand Theft Auto V\NativeTrainer.iobj
^C:\Users\blond\Downloads\ScriptHookV_SDK_1.0.617.1a\samples\NativeTrainer\NativeTrainer.vcxproj
C:\Program Files\Rockstar Games\Grand Theft Auto V\NativeTrainer.ipdb
C:\Program Files\Rockstar Games\Grand Theft Auto V\NativeTrainer.iobj
^C:\Users\blond\Downloads\ScriptHookV_SDK_1.0.617.1a\samples\NativeTrainer\NativeTrainer.vcxproj
C:\Program Files\Rockstar Games\Grand Theft Auto V\NativeTrainer.ipdb
C:\Program Files\Rockstar Games\Grand Theft Auto V\NativeTrainer.iobj
^C:\Users\blond\Downloads\ScriptHookV_SDK_1.0.617.1a\samples\NativeTrainer\NativeTrainer.vcxproj
C:\Program Files\Rockstar Games\Grand Theft Auto V\NativeTrainer.ipdb
C:\Program Files\Rockstar Games\Grand Theft Auto V\NativeTrainer.iobj
^C:\Users\blond\Downloads\ScriptHookV_SDK_1.0.617.1a\samples\NativeTrainer\NativeTrainer.vcxproj
C:\Program Files\Rockstar Games\Grand Theft Auto V\NativeTrainer.ipdb
C:\Program Files\Rockstar Games\Grand Theft Auto V\NativeTrainer.iobj
^C:\Users\blond\Downloads\ScriptHookV_SDK_1.0.617.1a\samples\NativeTrainer\NativeTrainer.vcxproj
C:\Program Files\Rockstar Games\Grand Theft Auto V\NativeTrainer.ipdb
C:\Program Files\Rockstar Games\Grand Theft Auto V\NativeTrainer.iobj
^C:\Users\blond\Downloads\ScriptHookV_SDK_1.0.617.1a\samples\NativeTrainer\NativeTrainer.vcxproj
C:\Program Files\Rockstar Games\Grand Theft Auto V\NativeTrainer.ipdb
C:\Program Files\Rockstar Games\Grand Theft Auto V\NativeTrainer.iobj
^C:\Users\blond\Downloads\ScriptHookV_SDK_1.0.617.1a\samples\NativeTrainer\NativeTrainer.vcxproj
C:\Program Files\Rockstar Games\Grand Theft Auto V\NativeTrainer.ipdb
C:\Program Files\Rockstar Games\Grand Theft Auto V\NativeTrainer.iobj
^C:\Users\blond\Downloads\ScriptHookV_SDK_1.0.617.1a\samples\NativeTrainer\NativeTrainer.vcxproj
C:\Program Files\Rockstar Games\Grand Theft Auto V\NativeTrainer.ipdb
C:\Program Files\Rockstar Games\Grand Theft Auto V\NativeTrainer.iobj
^C:\Users\blond\Downloads\ScriptHookV_SDK_1.0.617.1a\samples\NativeTrainer\NativeTrainer.vcxproj
C:\Program Files\Rockstar Games\Grand Theft Auto V\NativeTrainer.ipdb
C:\Program Files\Rockstar Games\Grand Theft Auto V\NativeTrainer.iobj
^C:\Users\blond\Downloads\ScriptHookV_SDK_1.0.617.1a\samples\NativeTrainer\NativeTrainer.vcxproj
C:\Program Files\Rockstar Games\Grand Theft Auto V\NativeTrainer.ipdb
C:\Program Files\Rockstar Games\Grand Theft Auto V\NativeTrainer.iobj
^C:\Users\blond\Downloads\ScriptHookV_SDK_1.0.617.1a\samples\NativeTrainer\NativeTrainer.vcxproj
C:\Program Files\Rockstar Games\Grand Theft Auto V\NativeTrainer.ipdb
C:\Program Files\Rockstar Games\Grand Theft Auto V\NativeTrainer.iobj
^C:\Users\blond\Downloads\ScriptHookV_SDK_1.0.617.1a\samples\NativeTrainer\NativeTrainer.vcxproj
C:\Program Files\Rockstar Games\Grand Theft Auto V\NativeTrainer.ipdb
C:\Program Files\Rockstar Games\Grand Theft Auto V\NativeTrainer.iobj
^C:\Users\blond\Downloads\ScriptHookV_SDK_1.0.617.1a\samples\NativeTrainer\NativeTrainer.vcxproj
C:\Program Files\Rockstar Games\Grand Theft Auto V\NativeTrainer.ipdb
C:\Program Files\Rockstar Games\Grand Theft Auto V\NativeTrainer.iobj
^C:\Users\blond\Downloads\ScriptHookV_SDK_1.0.617.1a\samples\NativeTrainer\NativeTrainer.vcxproj
C:\Program Files\Rockstar Games\Grand Theft Auto V\NativeTrainer.ipdb
C:\Program Files\Rockstar Games\Grand Theft Auto V\NativeTrainer.iobj
^C:\Users\blond\Downloads\ScriptHookV_SDK_1.0.617.1a\samples\NativeTrainer\NativeTrainer.vcxproj
C:\Program Files\Rockstar Games\Grand Theft Auto V\NativeTrainer.ipdb
C:\Program Files\Rockstar Games\Grand Theft Auto V\NativeTrainer.iobj
^C:\Users\blond\Downloads\ScriptHookV_SDK_1.0.617.1a\samples\NativeTrainer\NativeTrainer.vcxproj
C:\Program Files\Rockstar Games\Grand Theft Auto V\NativeTrainer.ipdb
C:\Program Files\Rockstar Games\Grand Theft Auto V\NativeTrainer.iobj
^C:\Users\blond\Downloads\ScriptHookV_SDK_1.0.617.1a\samples\NativeTrainer\NativeTrainer.vcxproj
C:\Program Files\Rockstar Games\Grand Theft Auto V\NativeTrainer.ipdb
C:\Program Files\Rockstar Games\Grand Theft Auto V\NativeTrainer.iobj
^C:\Users\blond\Downloads\ScriptHookV_SDK_1.0.617.1a\samples\NativeTrainer\NativeTrainer.vcxproj
C:\Program Files\Rockstar Games\Grand Theft Auto V\NativeTrainer.ipdb
C:\Program Files\Rockstar Games\Grand Theft Auto V\NativeTrainer.iobj
^C:\Users\blond\Downloads\ScriptHookV_SDK_1.0.617.1a\samples\NativeTrainer\NativeTrainer.vcxproj
C:\Program Files\Rockstar Games\Grand Theft Auto V\NativeTrainer.ipdb
C:\Program Files\Rockstar Games\Grand Theft Auto V\NativeTrainer.iobj
^C:\Users\blond\Downloads\ScriptHookV_SDK_1.0.617.1a\samples\NativeTrainer\NativeTrainer.vcxproj
C:\Program Files\Rockstar Games\Grand Theft Auto V\NativeTrainer.ipdb
C:\Program Files\Rockstar Games\Grand Theft Auto V\NativeTrainer.iobj
^C:\Users\blond\Downloads\ScriptHookV_SDK_1.0.617.1a\samples\NativeTrainer\NativeTrainer.vcxproj
C:\Program Files\Rockstar Games\Grand Theft Auto V\NativeTrainer.ipdb
C:\Program Files\Rockstar Games\Grand Theft Auto V\NativeTrainer.iobj
^C:\Users\blond\Downloads\ScriptHookV_SDK_1.0.617.1a\samples\NativeTrainer\NativeTrainer.vcxproj
C:\Program Files\Rockstar Games\Grand Theft Auto V\NativeTrainer.ipdb
C:\Program Files\Rockstar Games\Grand Theft Auto V\NativeTrainer.iobj
^C:\Users\blond\Downloads\ScriptHookV_SDK_1.0.617.1a\samples\NativeTrainer\NativeTrainer.vcxproj
C:\Program Files\Rockstar Games\Grand Theft Auto V\NativeTrainer.ipdb
C:\Program Files\Rockstar Games\Grand Theft Auto V\NativeTrainer.iobj
^C:\Users\blond\Downloads\ScriptHookV_SDK_1.0.617.1a\samples\NativeTrainer\NativeTrainer.vcxproj
C:\Program Files\Rockstar Games\Grand Theft Auto V\NativeTrainer.ipdb
C:\Program Files\Rockstar Games\Grand Theft Auto V\NativeTrainer.iobj
^C:\Users\blond\Downloads\ScriptHookV_SDK_1.0.617.1a\samples\NativeTrainer\NativeTrainer.vcxproj
C:\Program Files\Rockstar Games\Grand Theft Auto V\NativeTrainer.ipdb
C:\Program Files\Rockstar Games\Grand Theft Auto V\NativeTrainer.iobj
^C:\Users\blond\Downloads\ScriptHookV_SDK_1.0.617.1a\samples\NativeTrainer\NativeTrainer.vcxproj
C:\Program Files\Rockstar Games\Grand Theft Auto V\NativeTrainer.ipdb
C:\Program Files\Rockstar Games\Grand Theft Auto V\NativeTrainer.iobj
^C:\Users\blond\Downloads\ScriptHookV_SDK_1.0.617.1a\samples\NativeTrainer\NativeTrainer.vcxproj
C:\Program Files\Rockstar Games\Grand Theft Auto V\NativeTrainer.ipdb
C:\Program Files\Rockstar Games\Grand Theft Auto V\NativeTrainer.iobj
^C:\Users\blond\Downloads\ScriptHookV_SDK_1.0.617.1a\samples\NativeTrainer\NativeTrainer.vcxproj
C:\Program Files\Rockstar Games\Grand Theft Auto V\NativeTrainer.ipdb
C:\Program Files\Rockstar Games\Grand Theft Auto V\NativeTrainer.iobj
^C:\Users\blond\Downloads\ScriptHookV_SDK_1.0.617.1a\samples\NativeTrainer\NativeTrainer.vcxproj
C:\Program Files\Rockstar Games\Grand Theft Auto V\NativeTrainer.ipdb
C:\Program Files\Rockstar Games\Grand Theft Auto V\NativeTrainer.iobj
^C:\Users\blond\Downloads\ScriptHookV_SDK_1.0.617.1a\samples\NativeTrainer\NativeTrainer.vcxproj
C:\Program Files\Rockstar Games\Grand Theft Auto V\NativeTrainer.ipdb
C:\Program Files\Rockstar Games\Grand Theft Auto V\NativeTrainer.iobj
^C:\Users\blond\Downloads\ScriptHookV_SDK_1.0.617.1a\samples\NativeTrainer\NativeTrainer.vcxproj
C:\Program Files\Rockstar Games\Grand Theft Auto V\NativeTrainer.ipdb
C:\Program Files\Rockstar Games\Grand Theft Auto V\NativeTrainer.iobj
^C:\Users\blond\Downloads\ScriptHookV_SDK_1.0.617.1a\samples\NativeTrainer\NativeTrainer.vcxproj
C:\Program Files\Rockstar Games\Grand Theft Auto V\NativeTrainer.ipdb
C:\Program Files\Rockstar Games\Grand Theft Auto V\NativeTrainer.iobj
^C:\Users\blond\Downloads\ScriptHookV_SDK_1.0.617.1a\samples\NativeTrainer\NativeTrainer.vcxproj
C:\Program Files\Rockstar Games\Grand Theft Auto V\NativeTrainer.ipdb
C:\Program Files\Rockstar Games\Grand Theft Auto V\NativeTrainer.iobj
^C:\Users\blond\Downloads\ScriptHookV_SDK_1.0.617.1a\samples\NativeTrainer\NativeTrainer.vcxproj
C:\Program Files\Rockstar Games\Grand Theft Auto V\NativeTrainer.ipdb
C:\Program Files\Rockstar Games\Grand Theft Auto V\NativeTrainer.iobj
^C:\Users\blond\Downloads\ScriptHookV_SDK_1.0.617.1a\samples\NativeTrainer\NativeTrainer.vcxproj
C:\Program Files\Rockstar Games\Grand Theft Auto V\NativeTrainer.ipdb
C:\Program Files\Rockstar Games\Grand Theft Auto V\NativeTrainer.iobj
^C:\Users\blond\Downloads\ScriptHookV_SDK_1.0.617.1a\samples\NativeTrainer\NativeTrainer.vcxproj
C:\Program Files\Rockstar Games\Grand Theft Auto V\NativeTrainer.ipdb
C:\Program Files\Rockstar Games\Grand Theft Auto V\NativeTrainer.iobj
^C:\Users\blond\Downloads\ScriptHookV_SDK_1.0.617.1a\samples\NativeTrainer\NativeTrainer.vcxproj
C:\Program Files\Rockstar Games\Grand Theft Auto V\NativeTrainer.ipdb
C:\Program Files\Rockstar Games\Grand Theft Auto V\NativeTrainer.iobj
^C:\Users\blond\Downloads\ScriptHookV_SDK_1.0.617.1a\samples\NativeTrainer\NativeTrainer.vcxproj
C:\Program Files\Rockstar Games\Grand Theft Auto V\NativeTrainer.ipdb
C:\Program Files\Rockstar Games\Grand Theft Auto V\NativeTrainer.iobj
^C:\Users\blond\Downloads\ScriptHookV_SDK_1.0.617.1a\samples\NativeTrainer\NativeTrainer.vcxproj
C:\Program Files\Rockstar Games\Grand Theft Auto V\NativeTrainer.ipdb
C:\Program Files\Rockstar Games\Grand Theft Auto V\NativeTrainer.iobj
^C:\Users\blond\Downloads\ScriptHookV_SDK_1.0.617.1a\samples\NativeTrainer\NativeTrainer.vcxproj
C:\Program Files\Rockstar Games\Grand Theft Auto V\NativeTrainer.ipdb
C:\Program Files\Rockstar Games\Grand Theft Auto V\NativeTrainer.iobj
^C:\Users\blond\Downloads\ScriptHookV_SDK_1.0.617.1a\samples\NativeTrainer\NativeTrainer.vcxproj
C:\Program Files\Rockstar Games\Grand Theft Auto V\NativeTrainer.ipdb
C:\Program Files\Rockstar Games\Grand Theft Auto V\NativeTrainer.iobj
^C:\Users\blond\Downloads\ScriptHookV_SDK_1.0.617.1a\samples\NativeTrainer\NativeTrainer.vcxproj
C:\Program Files\Rockstar Games\Grand Theft Auto V\NativeTrainer.ipdb
C:\Program Files\Rockstar Games\Grand Theft Auto V\NativeTrainer.iobj
^C:\Users\blond\Downloads\ScriptHookV_SDK_1.0.617.1a\samples\NativeTrainer\NativeTrainer.vcxproj
C:\Program Files\Rockstar Games\Grand Theft Auto V\NativeTrainer.ipdb
C:\Program Files\Rockstar Games\Grand Theft Auto V\NativeTrainer.iobj
^C:\Users\blond\Downloads\ScriptHookV_SDK_1.0.617.1a\samples\NativeTrainer\NativeTrainer.vcxproj
C:\Program Files\Rockstar Games\Grand Theft Auto V\NativeTrainer.ipdb
C:\Program Files\Rockstar Games\Grand Theft Auto V\NativeTrainer.iobj
^C:\Users\blond\Downloads\ScriptHookV_SDK_1.0.617.1a\samples\NativeTrainer\NativeTrainer.vcxproj
C:\Program Files\Rockstar Games\Grand Theft Auto V\NativeTrainer.ipdb
C:\Program Files\Rockstar Games\Grand Theft Auto V\NativeTrainer.iobj
^C:\Users\blond\Downloads\ScriptHookV_SDK_1.0.617.1a\samples\NativeTrainer\NativeTrainer.vcxproj
C:\Program Files\Rockstar Games\Grand Theft Auto V\NativeTrainer.ipdb
C:\Program Files\Rockstar Games\Grand Theft Auto V\NativeTrainer.iobj
^C:\Users\blond\Downloads\ScriptHookV_SDK_1.0.617.1a\samples\NativeTrainer\NativeTrainer.vcxproj
C:\Program Files\Rockstar Games\Grand Theft Auto V\NativeTrainer.ipdb
C:\Program Files\Rockstar Games\Grand Theft Auto V\NativeTrainer.iobj
^C:\Users\blond\Downloads\ScriptHookV_SDK_1.0.617.1a\samples\NativeTrainer\NativeTrainer.vcxproj
C:\Program Files\Rockstar Games\Grand Theft Auto V\NativeTrainer.ipdb
C:\Program Files\Rockstar Games\Grand Theft Auto V\NativeTrainer.iobj
^C:\Users\blond\Downloads\ScriptHookV_SDK_1.0.617.1a\samples\NativeTrainer\NativeTrainer.vcxproj
C:\Program Files\Rockstar Games\Grand Theft Auto V\NativeTrainer.ipdb
C:\Program Files\Rockstar Games\Grand Theft Auto V\NativeTrainer.iobj
^C:\Users\blond\Downloads\ScriptHookV_SDK_1.0.617.1a\samples\NativeTrainer\NativeTrainer.vcxproj
C:\Program Files\Rockstar Games\Grand Theft Auto V\NativeTrainer.ipdb
C:\Program Files\Rockstar Games\Grand Theft Auto V\NativeTrainer.iobj
^C:\Users\blond\Downloads\ScriptHookV_SDK_1.0.617.1a\samples\NativeTrainer\NativeTrainer.vcxproj
C:\Program Files\Rockstar Games\Grand Theft Auto V\NativeTrainer.ipdb
C:\Program Files\Rockstar Games\Grand Theft Auto V\NativeTrainer.iobj
^C:\Users\blond\Downloads\ScriptHookV_SDK_1.0.617.1a\samples\NativeTrainer\NativeTrainer.vcxproj
C:\Program Files\Rockstar Games\Grand Theft Auto V\NativeTrainer.ipdb
C:\Program Files\Rockstar Games\Grand Theft Auto V\NativeTrainer.iobj
^C:\Users\blond\Downloads\ScriptHookV_SDK_1.0.617.1a\samples\NativeTrainer\NativeTrainer.vcxproj
C:\Program Files\Rockstar Games\Grand Theft Auto V\NativeTrainer.ipdb
C:\Program Files\Rockstar Games\Grand Theft Auto V\NativeTrainer.iobj
^C:\Users\blond\Downloads\ScriptHookV_SDK_1.0.617.1a\samples\NativeTrainer\NativeTrainer.vcxproj
C:\Program Files\Rockstar Games\Grand Theft Auto V\NativeTrainer.ipdb
C:\Program Files\Rockstar Games\Grand Theft Auto V\NativeTrainer.iobj
^C:\Users\blond\Downloads\ScriptHookV_SDK_1.0.617.1a\samples\NativeTrainer\NativeTrainer.vcxproj
C:\Program Files\Rockstar Games\Grand Theft Auto V\NativeTrainer.ipdb
C:\Program Files\Rockstar Games\Grand Theft Auto V\NativeTrainer.iobj
^C:\Users\blond\Downloads\ScriptHookV_SDK_1.0.617.1a\samples\NativeTrainer\NativeTrainer.vcxproj
C:\Program Files\Rockstar Games\Grand Theft Auto V\NativeTrainer.ipdb
C:\Program Files\Rockstar Games\Grand Theft Auto V\NativeTrainer.iobj
^C:\Users\blond\Downloads\ScriptHookV_SDK_1.0.617.1a\samples\NativeTrainer\NativeTrainer.vcxproj
C:\Program Files\Rockstar Games\Grand Theft Auto V\NativeTrainer.ipdb
C:\Program Files\Rockstar Games\Grand Theft Auto V\NativeTrainer.iobj
^C:\Users\blond\Downloads\ScriptHookV_SDK_1.0.617.1a\samples\NativeTrainer\NativeTrainer.vcxproj
C:\Program Files\Rockstar Games\Grand Theft Auto V\NativeTrainer.ipdb
C:\Program Files\Rockstar Games\Grand Theft Auto V\NativeTrainer.iobj
^C:\Users\blond\Downloads\ScriptHookV_SDK_1.0.617.1a\samples\NativeTrainer\NativeTrainer.vcxproj
C:\Program Files\Rockstar Games\Grand Theft Auto V\NativeTrainer.ipdb
C:\Program Files\Rockstar Games\Grand Theft Auto V\NativeTrainer.iobj
^C:\Users\blond\Downloads\ScriptHookV_SDK_1.0.617.1a\samples\NativeTrainer\NativeTrainer.vcxproj
C:\Program Files\Rockstar Games\Grand Theft Auto V\NativeTrainer.ipdb
C:\Program Files\Rockstar Games\Grand Theft Auto V\NativeTrainer.iobj
^C:\Users\blond\Downloads\ScriptHookV_SDK_1.0.617.1a\samples\NativeTrainer\NativeTrainer.vcxproj
C:\Program Files\Rockstar Games\Grand Theft Auto V\NativeTrainer.ipdb
C:\Program Files\Rockstar Games\Grand Theft Auto V\NativeTrainer.iobj
^C:\Users\blond\Downloads\ScriptHookV_SDK_1.0.617.1a\samples\NativeTrainer\NativeTrainer.vcxproj
C:\Program Files\Rockstar Games\Grand Theft Auto V\NativeTrainer.ipdb
C:\Program Files\Rockstar Games\Grand Theft Auto V\NativeTrainer.iobj
^C:\Users\blond\Downloads\ScriptHookV_SDK_1.0.617.1a\samples\NativeTrainer\NativeTrainer.vcxproj
C:\Program Files\Rockstar Games\Grand Theft Auto V\NativeTrainer.ipdb
C:\Program Files\Rockstar Games\Grand Theft Auto V\NativeTrainer.iobj
^C:\Users\blond\Downloads\ScriptHookV_SDK_1.0.617.1a\samples\NativeTrainer\NativeTrainer.vcxproj
C:\Program Files\Rockstar Games\Grand Theft Auto V\NativeTrainer.ipdb
C:\Program Files\Rockstar Games\Grand Theft Auto V\NativeTrainer.iobj
^C:\Users\blond\Downloads\ScriptHookV_SDK_1.0.617.1a\samples\NativeTrainer\NativeTrainer.vcxproj
C:\Program Files\Rockstar Games\Grand Theft Auto V\NativeTrainer.ipdb
C:\Program Files\Rockstar Games\Grand Theft Auto V\NativeTrainer.iobj
^C:\Users\blond\Downloads\ScriptHookV_SDK_1.0.617.1a\samples\NativeTrainer\NativeTrainer.vcxproj
C:\Program Files\Rockstar Games\Grand Theft Auto V\NativeTrainer.ipdb
C:\Program Files\Rockstar Games\Grand Theft Auto V\NativeTrainer.iobj
^C:\Users\blond\Downloads\ScriptHookV_SDK_1.0.617.1a\samples\NativeTrainer\NativeTrainer.vcxproj
C:\Program Files\Rockstar Games\Grand Theft Auto V\NativeTrainer.ipdb
C:\Program Files\Rockstar Games\Grand Theft Auto V\NativeTrainer.iobj
^C:\Users\blond\Downloads\ScriptHookV_SDK_1.0.617.1a\samples\NativeTrainer\NativeTrainer.vcxproj
C:\Program Files\Rockstar Games\Grand Theft Auto V\NativeTrainer.ipdb
C:\Program Files\Rockstar Games\Grand Theft Auto V\NativeTrainer.iobj
^C:\Users\blond\Downloads\ScriptHookV_SDK_1.0.617.1a\samples\NativeTrainer\NativeTrainer.vcxproj
C:\Program Files\Rockstar Games\Grand Theft Auto V\NativeTrainer.ipdb
C:\Program Files\Rockstar Games\Grand Theft Auto V\NativeTrainer.iobj
^C:\Users\blond\Downloads\ScriptHookV_SDK_1.0.617.1a\samples\NativeTrainer\NativeTrainer.vcxproj
C:\Program Files\Rockstar Games\Grand Theft Auto V\NativeTrainer.ipdb
C:\Program Files\Rockstar Games\Grand Theft Auto V\NativeTrainer.iobj
^C:\Users\blond\Downloads\ScriptHookV_SDK_1.0.617.1a\samples\NativeTrainer\NativeTrainer.vcxproj
C:\Program Files\Rockstar Games\Grand Theft Auto V\NativeTrainer.ipdb
C:\Program Files\Rockstar Games\Grand Theft Auto V\NativeTrainer.iobj
^C:\Users\blond\Downloads\ScriptHookV_SDK_1.0.617.1a\samples\NativeTrainer\NativeTrainer.vcxproj
C:\Program Files\Rockstar Games\Grand Theft Auto V\NativeTrainer.ipdb
C:\Program Files\Rockstar Games\Grand Theft Auto V\NativeTrainer.iobj
^C:\Users\blond\Downloads\ScriptHookV_SDK_1.0.617.1a\samples\NativeTrainer\NativeTrainer.vcxproj
C:\Program Files\Rockstar Games\Grand Theft Auto V\NativeTrainer.ipdb
C:\Program Files\Rockstar Games\Grand Theft Auto V\NativeTrainer.iobj
^C:\Users\blond\Downloads\ScriptHookV_SDK_1.0.617.1a\samples\NativeTrainer\NativeTrainer.vcxproj
C:\Program Files\Rockstar Games\Grand Theft Auto V\NativeTrainer.ipdb
C:\Program Files\Rockstar Games\Grand Theft Auto V\NativeTrainer.iobj
^C:\Users\blond\Downloads\ScriptHookV_SDK_1.0.617.1a\samples\NativeTrainer\NativeTrainer.vcxproj
C:\Program Files\Rockstar Games\Grand Theft Auto V\NativeTrainer.ipdb
C:\Program Files\Rockstar Games\Grand Theft Auto V\NativeTrainer.iobj
^C:\Users\blond\Downloads\ScriptHookV_SDK_1.0.617.1a\samples\NativeTrainer\NativeTrainer.vcxproj
C:\Program Files\Rockstar Games\Grand Theft Auto V\NativeTrainer.ipdb
C:\Program Files\Rockstar Games\Grand Theft Auto V\NativeTrainer.iobj
^C:\Users\blond\Downloads\ScriptHookV_SDK_1.0.617.1a\samples\NativeTrainer\NativeTrainer.vcxproj
C:\Program Files\Rockstar Games\Grand Theft Auto V\NativeTrainer.ipdb
C:\Program Files\Rockstar Games\Grand Theft Auto V\NativeTrainer.iobj
^C:\Users\blond\Downloads\ScriptHookV_SDK_1.0.617.1a\samples\NativeTrainer\NativeTrainer.vcxproj
C:\Program Files\Rockstar Games\Grand Theft Auto V\NativeTrainer.ipdb
C:\Program Files\Rockstar Games\Grand Theft Auto V\NativeTrainer.iobj
^C:\Users\blond\Downloads\ScriptHookV_SDK_1.0.617.1a\samples\NativeTrainer\NativeTrainer.vcxproj
C:\Program Files\Rockstar Games\Grand Theft Auto V\NativeTrainer.ipdb
C:\Program Files\Rockstar Games\Grand Theft Auto V\NativeTrainer.iobj
^C:\Users\blond\Downloads\ScriptHookV_SDK_1.0.617.1a\samples\NativeTrainer\NativeTrainer.vcxproj
C:\Program Files\Rockstar Games\Grand Theft Auto V\NativeTrainer.ipdb
C:\Program Files\Rockstar Games\Grand Theft Auto V\NativeTrainer.iobj
^C:\Users\blond\Downloads\ScriptHookV_SDK_1.0.617.1a\samples\NativeTrainer\NativeTrainer.vcxproj
C:\Program Files\Rockstar Games\Grand Theft Auto V\NativeTrainer.ipdb
C:\Program Files\Rockstar Games\Grand Theft Auto V\NativeTrainer.iobj
^C:\Users\blond\Downloads\ScriptHookV_SDK_1.0.617.1a\samples\NativeTrainer\NativeTrainer.vcxproj
C:\Program Files\Rockstar Games\Grand Theft Auto V\NativeTrainer.ipdb
C:\Program Files\Rockstar Games\Grand Theft Auto V\NativeTrainer.iobj
^C:\Users\blond\Downloads\ScriptHookV_SDK_1.0.617.1a\samples\NativeTrainer\NativeTrainer.vcxproj
C:\Program Files\Rockstar Games\Grand Theft Auto V\NativeTrainer.ipdb
C:\Program Files\Rockstar Games\Grand Theft Auto V\NativeTrainer.iobj
^C:\Users\blond\Downloads\ScriptHookV_SDK_1.0.617.1a\samples\NativeTrainer\NativeTrainer.vcxproj
C:\Program Files\Rockstar Games\Grand Theft Auto V\NativeTrainer.ipdb
C:\Program Files\Rockstar Games\Grand Theft Auto V\NativeTrainer.iobj
^C:\Users\blond\Downloads\ScriptHookV_SDK_1.0.617.1a\samples\NativeTrainer\NativeTrainer.vcxproj
C:\Program Files\Rockstar Games\Grand Theft Auto V\NativeTrainer.ipdb
C:\Program Files\Rockstar Games\Grand Theft Auto V\NativeTrainer.iobj
^C:\Users\blond\Downloads\ScriptHookV_SDK_1.0.617.1a\samples\NativeTrainer\NativeTrainer.vcxproj
C:\Program Files\Rockstar Games\Grand Theft Auto V\NativeTrainer.ipdb
C:\Program Files\Rockstar Games\Grand Theft Auto V\NativeTrainer.iobj
^C:\Users\blond\Downloads\ScriptHookV_SDK_1.0.617.1a\samples\NativeTrainer\NativeTrainer.vcxproj
C:\Program Files\Rockstar Games\Grand Theft Auto V\NativeTrainer.ipdb
C:\Program Files\Rockstar Games\Grand Theft Auto V\NativeTrainer.iobj
^C:\Users\blond\Downloads\ScriptHookV_SDK_1.0.617.1a\samples\NativeTrainer\NativeTrainer.vcxproj
C:\Program Files\Rockstar Games\Grand Theft Auto V\NativeTrainer.ipdb
C:\Program Files\Rockstar Games\Grand Theft Auto V\NativeTrainer.iobj
^C:\Users\blond\Downloads\ScriptHookV_SDK_1.0.617.1a\samples\NativeTrainer\NativeTrainer.vcxproj
C:\Program Files\Rockstar Games\Grand Theft Auto V\NativeTrainer.ipdb
C:\Program Files\Rockstar Games\Grand Theft Auto V\NativeTrainer.iobj
^C:\Users\blond\Downloads\ScriptHookV_SDK_1.0.617.1a\samples\NativeTrainer\NativeTrainer.vcxproj
C:\Program Files\Rockstar Games\Grand Theft Auto V\NativeTrainer.ipdb
C:\Program Files\Rockstar Games\Grand Theft Auto V\NativeTrainer.iobj
^C:\Users\blond\Downloads\ScriptHookV_SDK_1.0.617.1a\samples\NativeTrainer\NativeTrainer.vcxproj
C:\Program Files\Rockstar Games\Grand Theft Auto V\NativeTrainer.ipdb
C:\Program Files\Rockstar Games\Grand Theft Auto V\NativeTrainer.iobj
^C:\Users\blond\Downloads\ScriptHookV_SDK_1.0.617.1a\samples\NativeTrainer\NativeTrainer.vcxproj
C:\Program Files\Rockstar Games\Grand Theft Auto V\NativeTrainer.ipdb
C:\Program Files\Rockstar Games\Grand Theft Auto V\NativeTrainer.iobj
^C:\Users\blond\Downloads\ScriptHookV_SDK_1.0.617.1a\samples\NativeTrainer\NativeTrainer.vcxproj
C:\Program Files\Rockstar Games\Grand Theft Auto V\NativeTrainer.ipdb
C:\Program Files\Rockstar Games\Grand Theft Auto V\NativeTrainer.iobj
^C:\Users\blond\Downloads\ScriptHookV_SDK_1.0.617.1a\samples\NativeTrainer\NativeTrainer.vcxproj
C:\Program Files\Rockstar Games\Grand Theft Auto V\NativeTrainer.ipdb
C:\Program Files\Rockstar Games\Grand Theft Auto V\NativeTrainer.iobj
^C:\Users\blond\Downloads\ScriptHookV_SDK_1.0.617.1a\samples\NativeTrainer\NativeTrainer.vcxproj
C:\Program Files\Rockstar Games\Grand Theft Auto V\NativeTrainer.ipdb
C:\Program Files\Rockstar Games\Grand Theft Auto V\NativeTrainer.iobj
^C:\Users\blond\Downloads\ScriptHookV_SDK_1.0.617.1a\samples\NativeTrainer\NativeTrainer.vcxproj
C:\Program Files\Rockstar Games\Grand Theft Auto V\NativeTrainer.ipdb
C:\Program Files\Rockstar Games\Grand Theft Auto V\NativeTrainer.iobj
^C:\Users\blond\Downloads\ScriptHookV_SDK_1.0.617.1a\samples\NativeTrainer\NativeTrainer.vcxproj
C:\Program Files\Rockstar Games\Grand Theft Auto V\NativeTrainer.ipdb
C:\Program Files\Rockstar Games\Grand Theft Auto V\NativeTrainer.iobj
^C:\Users\blond\Downloads\ScriptHookV_SDK_1.0.617.1a\samples\NativeTrainer\NativeTrainer.vcxproj
C:\Program Files\Rockstar Games\Grand Theft Auto V\NativeTrainer.ipdb
C:\Program Files\Rockstar Games\Grand Theft Auto V\NativeTrainer.iobj
^C:\Users\blond\Downloads\ScriptHookV_SDK_1.0.617.1a\samples\NativeTrainer\NativeTrainer.vcxproj
C:\Program Files\Rockstar Games\Grand Theft Auto V\NativeTrainer.ipdb
C:\Program Files\Rockstar Games\Grand Theft Auto V\NativeTrainer.iobj
^C:\Users\blond\Downloads\ScriptHookV_SDK_1.0.617.1a\samples\NativeTrainer\NativeTrainer.vcxproj
C:\Program Files\Rockstar Games\Grand Theft Auto V\NativeTrainer.ipdb
C:\Program Files\Rockstar Games\Grand Theft Auto V\NativeTrainer.iobj
^C:\Users\blond\Downloads\ScriptHookV_SDK_1.0.617.1a\samples\NativeTrainer\NativeTrainer.vcxproj
C:\Program Files\Rockstar Games\Grand Theft Auto V\NativeTrainer.ipdb
C:\Program Files\Rockstar Games\Grand Theft Auto V\NativeTrainer.iobj
^C:\Users\blond\Downloads\ScriptHookV_SDK_1.0.617.1a\samples\NativeTrainer\NativeTrainer.vcxproj
C:\Program Files\Rockstar Games\Grand Theft Auto V\NativeTrainer.ipdb
C:\Program Files\Rockstar Games\Grand Theft Auto V\NativeTrainer.iobj
^C:\Users\blond\Downloads\ScriptHookV_SDK_1.0.617.1a\samples\NativeTrainer\NativeTrainer.vcxproj
C:\Program Files\Rockstar Games\Grand Theft Auto V\NativeTrainer.ipdb
C:\Program Files\Rockstar Games\Grand Theft Auto V\NativeTrainer.iobj
^C:\Users\blond\Downloads\ScriptHookV_SDK_1.0.617.1a\samples\NativeTrainer\NativeTrainer.vcxproj
C:\Program Files\Rockstar Games\Grand Theft Auto V\NativeTrainer.ipdb
C:\Program Files\Rockstar Games\Grand Theft Auto V\NativeTrainer.iobj
^C:\Users\blond\Downloads\ScriptHookV_SDK_1.0.617.1a\samples\NativeTrainer\NativeTrainer.vcxproj
C:\Program Files\Rockstar Games\Grand Theft Auto V\NativeTrainer.ipdb
C:\Program Files\Rockstar Games\Grand Theft Auto V\NativeTrainer.iobj
^C:\Users\blond\Downloads\ScriptHookV_SDK_1.0.617.1a\samples\NativeTrainer\NativeTrainer.vcxproj
C:\Program Files\Rockstar Games\Grand Theft Auto V\NativeTrainer.ipdb
C:\Program Files\Rockstar Games\Grand Theft Auto V\NativeTrainer.iobj
^C:\Users\blond\Downloads\ScriptHookV_SDK_1.0.617.1a\samples\NativeTrainer\NativeTrainer.vcxproj
C:\Program Files\Rockstar Games\Grand Theft Auto V\NativeTrainer.ipdb
C:\Program Files\Rockstar Games\Grand Theft Auto V\NativeTrainer.iobj
^C:\Users\blond\Downloads\ScriptHookV_SDK_1.0.617.1a\samples\NativeTrainer\NativeTrainer.vcxproj
C:\Program Files\Rockstar Games\Grand Theft Auto V\NativeTrainer.ipdb
C:\Program Files\Rockstar Games\Grand Theft Auto V\NativeTrainer.iobj
^C:\Users\blond\Downloads\ScriptHookV_SDK_1.0.617.1a\samples\NativeTrainer\NativeTrainer.vcxproj
C:\Program Files\Rockstar Games\Grand Theft Auto V\NativeTrainer.ipdb
C:\Program Files\Rockstar Games\Grand Theft Auto V\NativeTrainer.iobj
^C:\Users\blond\Downloads\ScriptHookV_SDK_1.0.617.1a\samples\NativeTrainer\NativeTrainer.vcxproj
C:\Program Files\Rockstar Games\Grand Theft Auto V\NativeTrainer.ipdb
C:\Program Files\Rockstar Games\Grand Theft Auto V\NativeTrainer.iobj
^C:\Users\blond\Downloads\ScriptHookV_SDK_1.0.617.1a\samples\NativeTrainer\NativeTrainer.vcxproj
C:\Program Files\Rockstar Games\Grand Theft Auto V\NativeTrainer.ipdb
C:\Program Files\Rockstar Games\Grand Theft Auto V\NativeTrainer.iobj
^C:\Users\blond\Downloads\ScriptHookV_SDK_1.0.617.1a\samples\NativeTrainer\NativeTrainer.vcxproj
C:\Program Files\Rockstar Games\Grand Theft Auto V\NativeTrainer.ipdb
C:\Program Files\Rockstar Games\Grand Theft Auto V\NativeTrainer.iobj
^C:\Users\blond\Downloads\ScriptHookV_SDK_1.0.617.1a\samples\NativeTrainer\NativeTrainer.vcxproj
C:\Program Files\Rockstar Games\Grand Theft Auto V\NativeTrainer.ipdb
C:\Program Files\Rockstar Games\Grand Theft Auto V\NativeTrainer.iobj
^C:\Users\blond\Downloads\ScriptHookV_SDK_1.0.617.1a\samples\NativeTrainer\NativeTrainer.vcxproj
C:\Program Files\Rockstar Games\Grand Theft Auto V\NativeTrainer.ipdb
C:\Program Files\Rockstar Games\Grand Theft Auto V\NativeTrainer.iobj
^C:\Users\blond\Downloads\ScriptHookV_SDK_1.0.617.1a\samples\NativeTrainer\NativeTrainer.vcxproj
C:\Program Files\Rockstar Games\Grand Theft Auto V\NativeTrainer.ipdb
C:\Program Files\Rockstar Games\Grand Theft Auto V\NativeTrainer.iobj
^C:\Users\blond\Downloads\ScriptHookV_SDK_1.0.617.1a\samples\NativeTrainer\NativeTrainer.vcxproj
C:\Program Files\Rockstar Games\Grand Theft Auto V\NativeTrainer.ipdb
C:\Program Files\Rockstar Games\Grand Theft Auto V\NativeTrainer.iobj
^C:\Users\blond\Downloads\ScriptHookV_SDK_1.0.617.1a\samples\NativeTrainer\NativeTrainer.vcxproj
C:\Program Files\Rockstar Games\Grand Theft Auto V\NativeTrainer.ipdb
C:\Program Files\Rockstar Games\Grand Theft Auto V\NativeTrainer.iobj
^C:\Users\blond\Downloads\ScriptHookV_SDK_1.0.617.1a\samples\NativeTrainer\NativeTrainer.vcxproj
C:\Program Files\Rockstar Games\Grand Theft Auto V\NativeTrainer.ipdb
C:\Program Files\Rockstar Games\Grand Theft Auto V\NativeTrainer.iobj
^C:\Users\blond\Downloads\ScriptHookV_SDK_1.0.617.1a\samples\NativeTrainer\NativeTrainer.vcxproj
C:\Program Files\Rockstar Games\Grand Theft Auto V\NativeTrainer.ipdb
C:\Program Files\Rockstar Games\Grand Theft Auto V\NativeTrainer.iobj
^C:\Users\blond\Downloads\ScriptHookV_SDK_1.0.617.1a\samples\NativeTrainer\NativeTrainer.vcxproj
C:\Program Files\Rockstar Games\Grand Theft Auto V\NativeTrainer.ipdb
C:\Program Files\Rockstar Games\Grand Theft Auto V\NativeTrainer.iobj
^C:\Users\blond\Downloads\ScriptHookV_SDK_1.0.617.1a\samples\NativeTrainer\NativeTrainer.vcxproj
C:\Program Files\Rockstar Games\Grand Theft Auto V\NativeTrainer.ipdb
C:\Program Files\Rockstar Games\Grand Theft Auto V\NativeTrainer.iobj
^C:\Users\blond\Downloads\ScriptHookV_SDK_1.0.617.1a\samples\NativeTrainer\NativeTrainer.vcxproj
C:\Program Files\Rockstar Games\Grand Theft Auto V\NativeTrainer.ipdb
C:\Program Files\Rockstar Games\Grand Theft Auto V\NativeTrainer.iobj
^C:\Users\blond\Downloads\ScriptHookV_SDK_1.0.617.1a\samples\NativeTrainer\NativeTrainer.vcxproj
C:\Program Files\Rockstar Games\Grand Theft Auto V\NativeTrainer.ipdb
C:\Program Files\Rockstar Games\Grand Theft Auto V\NativeTrainer.iobj
^C:\Users\blond\Downloads\ScriptHookV_SDK_1.0.617.1a\samples\NativeTrainer\NativeTrainer.vcxproj
C:\Program Files\Rockstar Games\Grand Theft Auto V\NativeTrainer.ipdb
C:\Program Files\Rockstar Games\Grand Theft Auto V\NativeTrainer.iobj
^C:\Users\blond\Downloads\ScriptHookV_SDK_1.0.617.1a\samples\NativeTrainer\NativeTrainer.vcxproj
C:\Program Files\Rockstar Games\Grand Theft Auto V\NativeTrainer.ipdb
C:\Program Files\Rockstar Games\Grand Theft Auto V\NativeTrainer.iobj
^C:\Users\blond\Downloads\ScriptHookV_SDK_1.0.617.1a\samples\NativeTrainer\NativeTrainer.vcxproj
C:\Program Files\Rockstar Games\Grand Theft Auto V\NativeTrainer.ipdb
C:\Program Files\Rockstar Games\Grand Theft Auto V\NativeTrainer.iobj
^C:\Users\blond\Downloads\ScriptHookV_SDK_1.0.617.1a\samples\NativeTrainer\NativeTrainer.vcxproj
C:\Program Files\Rockstar Games\Grand Theft Auto V\NativeTrainer.ipdb
C:\Program Files\Rockstar Games\Grand Theft Auto V\NativeTrainer.iobj
^C:\Users\blond\Downloads\ScriptHookV_SDK_1.0.617.1a\samples\NativeTrainer\NativeTrainer.vcxproj
C:\Program Files\Rockstar Games\Grand Theft Auto V\NativeTrainer.ipdb
C:\Program Files\Rockstar Games\Grand Theft Auto V\NativeTrainer.iobj
^C:\Users\blond\Downloads\ScriptHookV_SDK_1.0.617.1a\samples\NativeTrainer\NativeTrainer.vcxproj
C:\Program Files\Rockstar Games\Grand Theft Auto V\NativeTrainer.ipdb
C:\Program Files\Rockstar Games\Grand Theft Auto V\NativeTrainer.iobj
^C:\Users\blond\Downloads\ScriptHookV_SDK_1.0.617.1a\samples\NativeTrainer\NativeTrainer.vcxproj
C:\Program Files\Rockstar Games\Grand Theft Auto V\NativeTrainer.ipdb
C:\Program Files\Rockstar Games\Grand Theft Auto V\NativeTrainer.iobj
^C:\Users\blond\Downloads\ScriptHookV_SDK_1.0.617.1a\samples\NativeTrainer\NativeTrainer.vcxproj
C:\Program Files\Rockstar Games\Grand Theft Auto V\NativeTrainer.ipdb
C:\Program Files\Rockstar Games\Grand Theft Auto V\NativeTrainer.iobj
^C:\Users\blond\Downloads\ScriptHookV_SDK_1.0.617.1a\samples\NativeTrainer\NativeTrainer.vcxproj
C:\Program Files\Rockstar Games\Grand Theft Auto V\NativeTrainer.ipdb
C:\Program Files\Rockstar Games\Grand Theft Auto V\NativeTrainer.iobj
^C:\Users\blond\Downloads\ScriptHookV_SDK_1.0.617.1a\samples\NativeTrainer\NativeTrainer.vcxproj
C:\Program Files\Rockstar Games\Grand Theft Auto V\NativeTrainer.ipdb
C:\Program Files\Rockstar Games\Grand Theft Auto V\NativeTrainer.iobj
^C:\Users\blond\Downloads\ScriptHookV_SDK_1.0.617.1a\samples\NativeTrainer\NativeTrainer.vcxproj
C:\Program Files\Rockstar Games\Grand Theft Auto V\NativeTrainer.ipdb
C:\Program Files\Rockstar Games\Grand Theft Auto V\NativeTrainer.iobj
^C:\Users\blond\Downloads\ScriptHookV_SDK_1.0.617.1a\samples\NativeTrainer\NativeTrainer.vcxproj
C:\Program Files\Rockstar Games\Grand Theft Auto V\NativeTrainer.ipdb
C:\Program Files\Rockstar Games\Grand Theft Auto V\NativeTrainer.iobj
^C:\Users\blond\Downloads\ScriptHookV_SDK_1.0.617.1a\samples\NativeTrainer\NativeTrainer.vcxproj
C:\Program Files\Rockstar Games\Grand Theft Auto V\NativeTrainer.ipdb
C:\Program Files\Rockstar Games\Grand Theft Auto V\NativeTrainer.iobj
^C:\Users\blond\Downloads\ScriptHookV_SDK_1.0.617.1a\samples\NativeTrainer\NativeTrainer.vcxproj
C:\Program Files\Rockstar Games\Grand Theft Auto V\NativeTrainer.ipdb
C:\Program Files\Rockstar Games\Grand Theft Auto V\NativeTrainer.iobj
^C:\Users\blond\Downloads\ScriptHookV_SDK_1.0.617.1a\samples\NativeTrainer\NativeTrainer.vcxproj
C:\Program Files\Rockstar Games\Grand Theft Auto V\NativeTrainer.ipdb
C:\Program Files\Rockstar Games\Grand Theft Auto V\NativeTrainer.iobj
^C:\Users\blond\Downloads\ScriptHookV_SDK_1.0.617.1a\samples\NativeTrainer\NativeTrainer.vcxproj
C:\Program Files\Rockstar Games\Grand Theft Auto V\NativeTrainer.ipdb
C:\Program Files\Rockstar Games\Grand Theft Auto V\NativeTrainer.iobj
^C:\Users\blond\Downloads\ScriptHookV_SDK_1.0.617.1a\samples\NativeTrainer\NativeTrainer.vcxproj
C:\Program Files\Rockstar Games\Grand Theft Auto V\NativeTrainer.ipdb
C:\Program Files\Rockstar Games\Grand Theft Auto V\NativeTrainer.iobj
^C:\Users\blond\Downloads\ScriptHookV_SDK_1.0.617.1a\samples\NativeTrainer\NativeTrainer.vcxproj
C:\Program Files\Rockstar Games\Grand Theft Auto V\NativeTrainer.ipdb
C:\Program Files\Rockstar Games\Grand Theft Auto V\NativeTrainer.iobj
^C:\Users\blond\Downloads\ScriptHookV_SDK_1.0.617.1a\samples\NativeTrainer\NativeTrainer.vcxproj
C:\Program Files\Rockstar Games\Grand Theft Auto V\NativeTrainer.ipdb
C:\Program Files\Rockstar Games\Grand Theft Auto V\NativeTrainer.iobj
^C:\Users\blond\Downloads\ScriptHookV_SDK_1.0.617.1a\samples\NativeTrainer\NativeTrainer.vcxproj
C:\Program Files\Rockstar Games\Grand Theft Auto V\NativeTrainer.ipdb
C:\Program Files\Rockstar Games\Grand Theft Auto V\NativeTrainer.iobj
^C:\Users\blond\Downloads\ScriptHookV_SDK_1.0.617.1a\samples\NativeTrainer\NativeTrainer.vcxproj
C:\Program Files\Rockstar Games\Grand Theft Auto V\NativeTrainer.ipdb
C:\Program Files\Rockstar Games\Grand Theft Auto V\NativeTrainer.iobj
^C:\Users\blond\Downloads\ScriptHookV_SDK_1.0.617.1a\samples\NativeTrainer\NativeTrainer.vcxproj
C:\Program Files\Rockstar Games\Grand Theft Auto V\NativeTrainer.ipdb
C:\Program Files\Rockstar Games\Grand Theft Auto V\NativeTrainer.iobj
^C:\Users\blond\Downloads\ScriptHookV_SDK_1.0.617.1a\samples\NativeTrainer\NativeTrainer.vcxproj
C:\Program Files\Rockstar Games\Grand Theft Auto V\NativeTrainer.ipdb
C:\Program Files\Rockstar Games\Grand Theft Auto V\NativeTrainer.iobj
^C:\Users\blond\Downloads\ScriptHookV_SDK_1.0.617.1a\samples\NativeTrainer\NativeTrainer.vcxproj
C:\Program Files\Rockstar Games\Grand Theft Auto V\NativeTrainer.ipdb
C:\Program Files\Rockstar Games\Grand Theft Auto V\NativeTrainer.iobj
^C:\Users\blond\Downloads\ScriptHookV_SDK_1.0.617.1a\samples\NativeTrainer\NativeTrainer.vcxproj
C:\Program Files\Rockstar Games\Grand Theft Auto V\NativeTrainer.ipdb
C:\Program Files\Rockstar Games\Grand Theft Auto V\NativeTrainer.iobj
^C:\Users\blond\Downloads\ScriptHookV_SDK_1.0.617.1a\samples\NativeTrainer\NativeTrainer.vcxproj
C:\Program Files\Rockstar Games\Grand Theft Auto V\NativeTrainer.ipdb
C:\Program Files\Rockstar Games\Grand Theft Auto V\NativeTrainer.iobj
^C:\Users\blond\Downloads\ScriptHookV_SDK_1.0.617.1a\samples\NativeTrainer\NativeTrainer.vcxproj
C:\Program Files\Rockstar Games\Grand Theft Auto V\NativeTrainer.ipdb
C:\Program Files\Rockstar Games\Grand Theft Auto V\NativeTrainer.iobj
^C:\Users\blond\Downloads\ScriptHookV_SDK_1.0.617.1a\samples\NativeTrainer\NativeTrainer.vcxproj
C:\Program Files\Rockstar Games\Grand Theft Auto V\NativeTrainer.ipdb
C:\Program Files\Rockstar Games\Grand Theft Auto V\NativeTrainer.iobj
^C:\Users\blond\Downloads\ScriptHookV_SDK_1.0.617.1a\samples\NativeTrainer\NativeTrainer.vcxproj
C:\Program Files\Rockstar Games\Grand Theft Auto V\NativeTrainer.ipdb
C:\Program Files\Rockstar Games\Grand Theft Auto V\NativeTrainer.iobj
^C:\Users\blond\Downloads\ScriptHookV_SDK_1.0.617.1a\samples\NativeTrainer\NativeTrainer.vcxproj
C:\Program Files\Rockstar Games\Grand Theft Auto V\NativeTrainer.ipdb
C:\Program Files\Rockstar Games\Grand Theft Auto V\NativeTrainer.iobj
^C:\Users\blond\Downloads\ScriptHookV_SDK_1.0.617.1a\samples\NativeTrainer\NativeTrainer.vcxproj
C:\Program Files\Rockstar Games\Grand Theft Auto V\NativeTrainer.ipdb
C:\Program Files\Rockstar Games\Grand Theft Auto V\NativeTrainer.iobj
^C:\Users\blond\Downloads\ScriptHookV_SDK_1.0.617.1a\samples\NativeTrainer\NativeTrainer.vcxproj
C:\Program Files\Rockstar Games\Grand Theft Auto V\NativeTrainer.ipdb
C:\Program Files\Rockstar Games\Grand Theft Auto V\NativeTrainer.iobj
^C:\Users\blond\Downloads\ScriptHookV_SDK_1.0.617.1a\samples\NativeTrainer\NativeTrainer.vcxproj
C:\Program Files\Rockstar Games\Grand Theft Auto V\NativeTrainer.ipdb
C:\Program Files\Rockstar Games\Grand Theft Auto V\NativeTrainer.iobj
^C:\Users\blond\Downloads\ScriptHookV_SDK_1.0.617.1a\samples\NativeTrainer\NativeTrainer.vcxproj
C:\Program Files\Rockstar Games\Grand Theft Auto V\NativeTrainer.ipdb
C:\Program Files\Rockstar Games\Grand Theft Auto V\NativeTrainer.iobj
^C:\Users\blond\Downloads\ScriptHookV_SDK_1.0.617.1a\samples\NativeTrainer\NativeTrainer.vcxproj
C:\Program Files\Rockstar Games\Grand Theft Auto V\NativeTrainer.ipdb
C:\Program Files\Rockstar Games\Grand Theft Auto V\NativeTrainer.iobj
^C:\Users\blond\Downloads\ScriptHookV_SDK_1.0.617.1a\samples\NativeTrainer\NativeTrainer.vcxproj
C:\Program Files\Rockstar Games\Grand Theft Auto V\NativeTrainer.ipdb
C:\Program Files\Rockstar Games\Grand Theft Auto V\NativeTrainer.iobj
^C:\Users\blond\Downloads\ScriptHookV_SDK_1.0.617.1a\samples\NativeTrainer\NativeTrainer.vcxproj
C:\Program Files\Rockstar Games\Grand Theft Auto V\NativeTrainer.ipdb
C:\Program Files\Rockstar Games\Grand Theft Auto V\NativeTrainer.iobj
^C:\Users\blond\Downloads\ScriptHookV_SDK_1.0.617.1a\samples\NativeTrainer\NativeTrainer.vcxproj
C:\Program Files\Rockstar Games\Grand Theft Auto V\NativeTrainer.ipdb
C:\Program Files\Rockstar Games\Grand Theft Auto V\NativeTrainer.iobj
^C:\Users\blond\Downloads\ScriptHookV_SDK_1.0.617.1a\samples\NativeTrainer\NativeTrainer.vcxproj
C:\Program Files\Rockstar Games\Grand Theft Auto V\NativeTrainer.ipdb
C:\Program Files\Rockstar Games\Grand Theft Auto V\NativeTrainer.iobj
^C:\Users\blond\Downloads\ScriptHookV_SDK_1.0.617.1a\samples\NativeTrainer\NativeTrainer.vcxproj
C:\Program Files\Rockstar Games\Grand Theft Auto V\NativeTrainer.ipdb
C:\Program Files\Rockstar Games\Grand Theft Auto V\NativeTrainer.iobj
^C:\Users\blond\Downloads\ScriptHookV_SDK_1.0.617.1a\samples\NativeTrainer\NativeTrainer.vcxproj
C:\Program Files\Rockstar Games\Grand Theft Auto V\NativeTrainer.ipdb
C:\Program Files\Rockstar Games\Grand Theft Auto V\NativeTrainer.iobj
^C:\Users\blond\Downloads\ScriptHookV_SDK_1.0.617.1a\samples\NativeTrainer\NativeTrainer.vcxproj
C:\Program Files\Rockstar Games\Grand Theft Auto V\NativeTrainer.ipdb
C:\Program Files\Rockstar Games\Grand Theft Auto V\NativeTrainer.iobj
^C:\Users\blond\Downloads\ScriptHookV_SDK_1.0.617.1a\samples\NativeTrainer\NativeTrainer.vcxproj
C:\Program Files\Rockstar Games\Grand Theft Auto V\NativeTrainer.ipdb
C:\Program Files\Rockstar Games\Grand Theft Auto V\NativeTrainer.iobj
^C:\Users\blond\Downloads\ScriptHookV_SDK_1.0.617.1a\samples\NativeTrainer\NativeTrainer.vcxproj
C:\Program Files\Rockstar Games\Grand Theft Auto V\NativeTrainer.ipdb
C:\Program Files\Rockstar Games\Grand Theft Auto V\NativeTrainer.iobj
^C:\Users\blond\Downloads\ScriptHookV_SDK_1.0.617.1a\samples\NativeTrainer\NativeTrainer.vcxproj
C:\Program Files\Rockstar Games\Grand Theft Auto V\NativeTrainer.ipdb
C:\Program Files\Rockstar Games\Grand Theft Auto V\NativeTrainer.iobj
^C:\Users\blond\Downloads\ScriptHookV_SDK_1.0.617.1a\samples\NativeTrainer\NativeTrainer.vcxproj
C:\Program Files\Rockstar Games\Grand Theft Auto V\NativeTrainer.ipdb
C:\Program Files\Rockstar Games\Grand Theft Auto V\NativeTrainer.iobj
^C:\Users\blond\Downloads\ScriptHookV_SDK_1.0.617.1a\samples\NativeTrainer\NativeTrainer.vcxproj
C:\Program Files\Rockstar Games\Grand Theft Auto V\NativeTrainer.ipdb
C:\Program Files\Rockstar Games\Grand Theft Auto V\NativeTrainer.iobj
^C:\Users\blond\Downloads\ScriptHookV_SDK_1.0.617.1a\samples\NativeTrainer\NativeTrainer.vcxproj
C:\Program Files\Rockstar Games\Grand Theft Auto V\NativeTrainer.ipdb
C:\Program Files\Rockstar Games\Grand Theft Auto V\NativeTrainer.iobj
^C:\Users\blond\Downloads\ScriptHookV_SDK_1.0.617.1a\samples\NativeTrainer\NativeTrainer.vcxproj
C:\Program Files\Rockstar Games\Grand Theft Auto V\NativeTrainer.ipdb
C:\Program Files\Rockstar Games\Grand Theft Auto V\NativeTrainer.iobj
^C:\Users\blond\Downloads\ScriptHookV_SDK_1.0.617.1a\samples\NativeTrainer\NativeTrainer.vcxproj
C:\Program Files\Rockstar Games\Grand Theft Auto V\NativeTrainer.ipdb
C:\Program Files\Rockstar Games\Grand Theft Auto V\NativeTrainer.iobj
^C:\Users\blond\Downloads\ScriptHookV_SDK_1.0.617.1a\samples\NativeTrainer\NativeTrainer.vcxproj
C:\Program Files\Rockstar Games\Grand Theft Auto V\NativeTrainer.ipdb
C:\Program Files\Rockstar Games\Grand Theft Auto V\NativeTrainer.iobj
^C:\Users\blond\Downloads\ScriptHookV_SDK_1.0.617.1a\samples\NativeTrainer\NativeTrainer.vcxproj
C:\Program Files\Rockstar Games\Grand Theft Auto V\NativeTrainer.ipdb
C:\Program Files\Rockstar Games\Grand Theft Auto V\NativeTrainer.iobj
^C:\Users\blond\Downloads\ScriptHookV_SDK_1.0.617.1a\samples\NativeTrainer\NativeTrainer.vcxproj
C:\Program Files\Rockstar Games\Grand Theft Auto V\NativeTrainer.ipdb
C:\Program Files\Rockstar Games\Grand Theft Auto V\NativeTrainer.iobj
^C:\Users\blond\Downloads\ScriptHookV_SDK_1.0.617.1a\samples\NativeTrainer\NativeTrainer.vcxproj
C:\Program Files\Rockstar Games\Grand Theft Auto V\NativeTrainer.ipdb
C:\Program Files\Rockstar Games\Grand Theft Auto V\NativeTrainer.iobj
^C:\Users\blond\Downloads\ScriptHookV_SDK_1.0.617.1a\samples\NativeTrainer\NativeTrainer.vcxproj
C:\Program Files\Rockstar Games\Grand Theft Auto V\NativeTrainer.ipdb
C:\Program Files\Rockstar Games\Grand Theft Auto V\NativeTrainer.iobj
^C:\Users\blond\Downloads\ScriptHookV_SDK_1.0.617.1a\samples\NativeTrainer\NativeTrainer.vcxproj
C:\Program Files\Rockstar Games\Grand Theft Auto V\NativeTrainer.ipdb
C:\Program Files\Rockstar Games\Grand Theft Auto V\NativeTrainer.iobj
^C:\Users\blond\Downloads\ScriptHookV_SDK_1.0.617.1a\samples\NativeTrainer\NativeTrainer.vcxproj
C:\Program Files\Rockstar Games\Grand Theft Auto V\NativeTrainer.ipdb
C:\Program Files\Rockstar Games\Grand Theft Auto V\NativeTrainer.iobj
^C:\Users\blond\Downloads\ScriptHookV_SDK_1.0.617.1a\samples\NativeTrainer\NativeTrainer.vcxproj
C:\Program Files\Rockstar Games\Grand Theft Auto V\NativeTrainer.ipdb
C:\Program Files\Rockstar Games\Grand Theft Auto V\NativeTrainer.iobj
^C:\Users\blond\Downloads\ScriptHookV_SDK_1.0.617.1a\samples\NativeTrainer\NativeTrainer.vcxproj
C:\Program Files\Rockstar Games\Grand Theft Auto V\NativeTrainer.ipdb
C:\Program Files\Rockstar Games\Grand Theft Auto V\NativeTrainer.iobj
^C:\Users\blond\Downloads\ScriptHookV_SDK_1.0.617.1a\samples\NativeTrainer\NativeTrainer.vcxproj
C:\Program Files\Rockstar Games\Grand Theft Auto V\NativeTrainer.ipdb
C:\Program Files\Rockstar Games\Grand Theft Auto V\NativeTrainer.iobj
^C:\Users\blond\Downloads\ScriptHookV_SDK_1.0.617.1a\samples\NativeTrainer\NativeTrainer.vcxproj
C:\Program Files\Rockstar Games\Grand Theft Auto V\NativeTrainer.ipdb
C:\Program Files\Rockstar Games\Grand Theft Auto V\NativeTrainer.iobj
^C:\Users\blond\Downloads\ScriptHookV_SDK_1.0.617.1a\samples\NativeTrainer\NativeTrainer.vcxproj
C:\Program Files\Rockstar Games\Grand Theft Auto V\NativeTrainer.ipdb
C:\Program Files\Rockstar Games\Grand Theft Auto V\NativeTrainer.iobj
^C:\Users\blond\Downloads\ScriptHookV_SDK_1.0.617.1a\samples\NativeTrainer\NativeTrainer.vcxproj
C:\Program Files\Rockstar Games\Grand Theft Auto V\NativeTrainer.ipdb
C:\Program Files\Rockstar Games\Grand Theft Auto V\NativeTrainer.iobj
^C:\Users\blond\Downloads\ScriptHookV_SDK_1.0.617.1a\samples\NativeTrainer\NativeTrainer.vcxproj
C:\Program Files\Rockstar Games\Grand Theft Auto V\NativeTrainer.ipdb
C:\Program Files\Rockstar Games\Grand Theft Auto V\NativeTrainer.iobj
^C:\Users\blond\Downloads\ScriptHookV_SDK_1.0.617.1a\samples\NativeTrainer\NativeTrainer.vcxproj
C:\Program Files\Rockstar Games\Grand Theft Auto V\NativeTrainer.ipdb
C:\Program Files\Rockstar Games\Grand Theft Auto V\NativeTrainer.iobj
^C:\Users\blond\Downloads\ScriptHookV_SDK_1.0.617.1a\samples\NativeTrainer\NativeTrainer.vcxproj
C:\Program Files\Rockstar Games\Grand Theft Auto V\NativeTrainer.ipdb
C:\Program Files\Rockstar Games\Grand Theft Auto V\NativeTrainer.iobj
^C:\Users\blond\Downloads\ScriptHookV_SDK_1.0.617.1a\samples\NativeTrainer\NativeTrainer.vcxproj
C:\Program Files\Rockstar Games\Grand Theft Auto V\NativeTrainer.ipdb
C:\Program Files\Rockstar Games\Grand Theft Auto V\NativeTrainer.iobj
^C:\Users\blond\Downloads\ScriptHookV_SDK_1.0.617.1a\samples\NativeTrainer\NativeTrainer.vcxproj
C:\Program Files\Rockstar Games\Grand Theft Auto V\NativeTrainer.ipdb
C:\Program Files\Rockstar Games\Grand Theft Auto V\NativeTrainer.iobj
^C:\Users\blond\Downloads\ScriptHookV_SDK_1.0.617.1a\samples\NativeTrainer\NativeTrainer.vcxproj
C:\Program Files\Rockstar Games\Grand Theft Auto V\NativeTrainer.ipdb
C:\Program Files\Rockstar Games\Grand Theft Auto V\NativeTrainer.iobj
^C:\Users\blond\Downloads\ScriptHookV_SDK_1.0.617.1a\samples\NativeTrainer\NativeTrainer.vcxproj
C:\Program Files\Rockstar Games\Grand Theft Auto V\NativeTrainer.ipdb
C:\Program Files\Rockstar Games\Grand Theft Auto V\NativeTrainer.iobj
^C:\Users\blond\Downloads\ScriptHookV_SDK_1.0.617.1a\samples\NativeTrainer\NativeTrainer.vcxproj
C:\Program Files\Rockstar Games\Grand Theft Auto V\NativeTrainer.ipdb
C:\Program Files\Rockstar Games\Grand Theft Auto V\NativeTrainer.iobj
^C:\Users\blond\Downloads\ScriptHookV_SDK_1.0.617.1a\samples\NativeTrainer\NativeTrainer.vcxproj
C:\Program Files\Rockstar Games\Grand Theft Auto V\NativeTrainer.ipdb
C:\Program Files\Rockstar Games\Grand Theft Auto V\NativeTrainer.iobj
^C:\Users\blond\Downloads\ScriptHookV_SDK_1.0.617.1a\samples\NativeTrainer\NativeTrainer.vcxproj
C:\Program Files\Rockstar Games\Grand Theft Auto V\NativeTrainer.ipdb
C:\Program Files\Rockstar Games\Grand Theft Auto V\NativeTrainer.iobj
^C:\Users\blond\Downloads\ScriptHookV_SDK_1.0.617.1a\samples\NativeTrainer\NativeTrainer.vcxproj
C:\Program Files\Rockstar Games\Grand Theft Auto V\NativeTrainer.ipdb
C:\Program Files\Rockstar Games\Grand Theft Auto V\NativeTrainer.iobj
^C:\Users\blond\Downloads\ScriptHookV_SDK_1.0.617.1a\samples\NativeTrainer\NativeTrainer.vcxproj
C:\Program Files\Rockstar Games\Grand Theft Auto V\NativeTrainer.ipdb
C:\Program Files\Rockstar Games\Grand Theft Auto V\NativeTrainer.iobj
^C:\Users\blond\Downloads\ScriptHookV_SDK_1.0.617.1a\samples\NativeTrainer\NativeTrainer.vcxproj
C:\Program Files\Rockstar Games\Grand Theft Auto V\NativeTrainer.ipdb
C:\Program Files\Rockstar Games\Grand Theft Auto V\NativeTrainer.iobj
^C:\Users\blond\Downloads\ScriptHookV_SDK_1.0.617.1a\samples\NativeTrainer\NativeTrainer.vcxproj
C:\Program Files\Rockstar Games\Grand Theft Auto V\NativeTrainer.ipdb
C:\Program Files\Rockstar Games\Grand Theft Auto V\NativeTrainer.iobj
^C:\Users\blond\Downloads\ScriptHookV_SDK_1.0.617.1a\samples\NativeTrainer\NativeTrainer.vcxproj
C:\Program Files\Rockstar Games\Grand Theft Auto V\NativeTrainer.ipdb
C:\Program Files\Rockstar Games\Grand Theft Auto V\NativeTrainer.iobj
^C:\Users\blond\Downloads\ScriptHookV_SDK_1.0.617.1a\samples\NativeTrainer\NativeTrainer.vcxproj
C:\Program Files\Rockstar Games\Grand Theft Auto V\NativeTrainer.ipdb
C:\Program Files\Rockstar Games\Grand Theft Auto V\NativeTrainer.iobj
^C:\Users\blond\Downloads\ScriptHookV_SDK_1.0.617.1a\samples\NativeTrainer\NativeTrainer.vcxproj
C:\Program Files\Rockstar Games\Grand Theft Auto V\NativeTrainer.ipdb
C:\Program Files\Rockstar Games\Grand Theft Auto V\NativeTrainer.iobj
^C:\Users\blond\Downloads\ScriptHookV_SDK_1.0.617.1a\samples\NativeTrainer\NativeTrainer.vcxproj
C:\Program Files\Rockstar Games\Grand Theft Auto V\NativeTrainer.ipdb
C:\Program Files\Rockstar Games\Grand Theft Auto V\NativeTrainer.iobj
^C:\Users\blond\Downloads\ScriptHookV_SDK_1.0.617.1a\samples\NativeTrainer\NativeTrainer.vcxproj
C:\Program Files\Rockstar Games\Grand Theft Auto V\NativeTrainer.ipdb
C:\Program Files\Rockstar Games\Grand Theft Auto V\NativeTrainer.iobj
^C:\Users\blond\Downloads\ScriptHookV_SDK_1.0.617.1a\samples\NativeTrainer\NativeTrainer.vcxproj
C:\Program Files\Rockstar Games\Grand Theft Auto V\NativeTrainer.ipdb
C:\Program Files\Rockstar Games\Grand Theft Auto V\NativeTrainer.iobj
^C:\Users\blond\Downloads\ScriptHookV_SDK_1.0.617.1a\samples\NativeTrainer\NativeTrainer.vcxproj
C:\Program Files\Rockstar Games\Grand Theft Auto V\NativeTrainer.ipdb
C:\Program Files\Rockstar Games\Grand Theft Auto V\NativeTrainer.iobj
^C:\Users\blond\Downloads\ScriptHookV_SDK_1.0.617.1a\samples\NativeTrainer\NativeTrainer.vcxproj
C:\Program Files\Rockstar Games\Grand Theft Auto V\NativeTrainer.ipdb
C:\Program Files\Rockstar Games\Grand Theft Auto V\NativeTrainer.iobj
^C:\Users\blond\Downloads\ScriptHookV_SDK_1.0.617.1a\samples\NativeTrainer\NativeTrainer.vcxproj
C:\Program Files\Rockstar Games\Grand Theft Auto V\NativeTrainer.ipdb
C:\Program Files\Rockstar Games\Grand Theft Auto V\NativeTrainer.iobj
^C:\Users\blond\Downloads\ScriptHookV_SDK_1.0.617.1a\samples\NativeTrainer\NativeTrainer.vcxproj
C:\Program Files\Rockstar Games\Grand Theft Auto V\NativeTrainer.ipdb
C:\Program Files\Rockstar Games\Grand Theft Auto V\NativeTrainer.iobj
^C:\Users\blond\Downloads\ScriptHookV_SDK_1.0.617.1a\samples\NativeTrainer\NativeTrainer.vcxproj
C:\Program Files\Rockstar Games\Grand Theft Auto V\NativeTrainer.ipdb
C:\Program Files\Rockstar Games\Grand Theft Auto V\NativeTrainer.iobj
^C:\Users\blond\Downloads\ScriptHookV_SDK_1.0.617.1a\samples\NativeTrainer\NativeTrainer.vcxproj
C:\Program Files\Rockstar Games\Grand Theft Auto V\NativeTrainer.ipdb
C:\Program Files\Rockstar Games\Grand Theft Auto V\NativeTrainer.iobj
^C:\Users\blond\Downloads\ScriptHookV_SDK_1.0.617.1a\samples\NativeTrainer\NativeTrainer.vcxproj
C:\Program Files\Rockstar Games\Grand Theft Auto V\NativeTrainer.ipdb
C:\Program Files\Rockstar Games\Grand Theft Auto V\NativeTrainer.iobj
^C:\Users\blond\Downloads\ScriptHookV_SDK_1.0.617.1a\samples\NativeTrainer\NativeTrainer.vcxproj
C:\Program Files\Rockstar Games\Grand Theft Auto V\NativeTrainer.ipdb
C:\Program Files\Rockstar Games\Grand Theft Auto V\NativeTrainer.iobj
^C:\Users\blond\Downloads\ScriptHookV_SDK_1.0.617.1a\samples\NativeTrainer\NativeTrainer.vcxproj
C:\Program Files\Rockstar Games\Grand Theft Auto V\NativeTrainer.ipdb
C:\Program Files\Rockstar Games\Grand Theft Auto V\NativeTrainer.iobj
^C:\Users\blond\Downloads\ScriptHookV_SDK_1.0.617.1a\samples\NativeTrainer\NativeTrainer.vcxproj
C:\Program Files\Rockstar Games\Grand Theft Auto V\NativeTrainer.ipdb
C:\Program Files\Rockstar Games\Grand Theft Auto V\NativeTrainer.iobj
^C:\Users\blond\Downloads\ScriptHookV_SDK_1.0.617.1a\samples\NativeTrainer\NativeTrainer.vcxproj
C:\Program Files\Rockstar Games\Grand Theft Auto V\NativeTrainer.ipdb
C:\Program Files\Rockstar Games\Grand Theft Auto V\NativeTrainer.iobj
^C:\Users\blond\Downloads\ScriptHookV_SDK_1.0.617.1a\samples\NativeTrainer\NativeTrainer.vcxproj
C:\Program Files\Rockstar Games\Grand Theft Auto V\NativeTrainer.ipdb
C:\Program Files\Rockstar Games\Grand Theft Auto V\NativeTrainer.iobj
^C:\Users\blond\Downloads\ScriptHookV_SDK_1.0.617.1a\samples\NativeTrainer\NativeTrainer.vcxproj
C:\Program Files\Rockstar Games\Grand Theft Auto V\NativeTrainer.ipdb
C:\Program Files\Rockstar Games\Grand Theft Auto V\NativeTrainer.iobj
^C:\Users\blond\Downloads\ScriptHookV_SDK_1.0.617.1a\samples\NativeTrainer\NativeTrainer.vcxproj
C:\Program Files\Rockstar Games\Grand Theft Auto V\NativeTrainer.ipdb
C:\Program Files\Rockstar Games\Grand Theft Auto V\NativeTrainer.iobj
^C:\Users\blond\Downloads\ScriptHookV_SDK_1.0.617.1a\samples\NativeTrainer\NativeTrainer.vcxproj
C:\Program Files\Rockstar Games\Grand Theft Auto V\NativeTrainer.ipdb
C:\Program Files\Rockstar Games\Grand Theft Auto V\NativeTrainer.iobj
^C:\Users\blond\Downloads\ScriptHookV_SDK_1.0.617.1a\samples\NativeTrainer\NativeTrainer.vcxproj
C:\Program Files\Rockstar Games\Grand Theft Auto V\NativeTrainer.ipdb
C:\Program Files\Rockstar Games\Grand Theft Auto V\NativeTrainer.iobj
^C:\Users\blond\Downloads\ScriptHookV_SDK_1.0.617.1a\samples\NativeTrainer\NativeTrainer.vcxproj
C:\Program Files\Rockstar Games\Grand Theft Auto V\NativeTrainer.ipdb
C:\Program Files\Rockstar Games\Grand Theft Auto V\NativeTrainer.iobj
^C:\Users\blond\Downloads\ScriptHookV_SDK_1.0.617.1a\samples\NativeTrainer\NativeTrainer.vcxproj
C:\Program Files\Rockstar Games\Grand Theft Auto V\NativeTrainer.ipdb
C:\Program Files\Rockstar Games\Grand Theft Auto V\NativeTrainer.iobj
^C:\Users\blond\Downloads\ScriptHookV_SDK_1.0.617.1a\samples\NativeTrainer\NativeTrainer.vcxproj
C:\Program Files\Rockstar Games\Grand Theft Auto V\NativeTrainer.ipdb
C:\Program Files\Rockstar Games\Grand Theft Auto V\NativeTrainer.iobj
^C:\Users\blond\Downloads\ScriptHookV_SDK_1.0.617.1a\samples\NativeTrainer\NativeTrainer.vcxproj
C:\Program Files\Rockstar Games\Grand Theft Auto V\NativeTrainer.ipdb
C:\Program Files\Rockstar Games\Grand Theft Auto V\NativeTrainer.iobj
^C:\Users\blond\Downloads\ScriptHookV_SDK_1.0.617.1a\samples\NativeTrainer\NativeTrainer.vcxproj
C:\Program Files\Rockstar Games\Grand Theft Auto V\NativeTrainer.ipdb
C:\Program Files\Rockstar Games\Grand Theft Auto V\NativeTrainer.iobj
^C:\Users\blond\Downloads\ScriptHookV_SDK_1.0.617.1a\samples\NativeTrainer\NativeTrainer.vcxproj
C:\Program Files\Rockstar Games\Grand Theft Auto V\NativeTrainer.ipdb
C:\Program Files\Rockstar Games\Grand Theft Auto V\NativeTrainer.iobj
^C:\Users\blond\Downloads\ScriptHookV_SDK_1.0.617.1a\samples\NativeTrainer\NativeTrainer.vcxproj
C:\Program Files\Rockstar Games\Grand Theft Auto V\NativeTrainer.ipdb
C:\Program Files\Rockstar Games\Grand Theft Auto V\NativeTrainer.iobj
^C:\Users\blond\Downloads\ScriptHookV_SDK_1.0.617.1a\samples\NativeTrainer\NativeTrainer.vcxproj
C:\Program Files\Rockstar Games\Grand Theft Auto V\NativeTrainer.ipdb
C:\Program Files\Rockstar Games\Grand Theft Auto V\NativeTrainer.iobj
^C:\Users\blond\Downloads\ScriptHookV_SDK_1.0.617.1a\samples\NativeTrainer\NativeTrainer.vcxproj
C:\Program Files\Rockstar Games\Grand Theft Auto V\NativeTrainer.ipdb
C:\Program Files\Rockstar Games\Grand Theft Auto V\NativeTrainer.iobj
^C:\Users\blond\Downloads\ScriptHookV_SDK_1.0.617.1a\samples\NativeTrainer\NativeTrainer.vcxproj
C:\Program Files\Rockstar Games\Grand Theft Auto V\NativeTrainer.ipdb
C:\Program Files\Rockstar Games\Grand Theft Auto V\NativeTrainer.iobj
^C:\Users\blond\Downloads\ScriptHookV_SDK_1.0.617.1a\samples\NativeTrainer\NativeTrainer.vcxproj
C:\Program Files\Rockstar Games\Grand Theft Auto V\NativeTrainer.ipdb
C:\Program Files\Rockstar Games\Grand Theft Auto V\NativeTrainer.iobj
^C:\Users\blond\Downloads\ScriptHookV_SDK_1.0.617.1a\samples\NativeTrainer\NativeTrainer.vcxproj
C:\Program Files\Rockstar Games\Grand Theft Auto V\NativeTrainer.ipdb
C:\Program Files\Rockstar Games\Grand Theft Auto V\NativeTrainer.iobj
^C:\Users\blond\Downloads\ScriptHookV_SDK_1.0.617.1a\samples\NativeTrainer\NativeTrainer.vcxproj
C:\Program Files\Rockstar Games\Grand Theft Auto V\NativeTrainer.ipdb
C:\Program Files\Rockstar Games\Grand Theft Auto V\NativeTrainer.iobj
^C:\Users\blond\Downloads\ScriptHookV_SDK_1.0.617.1a\samples\NativeTrainer\NativeTrainer.vcxproj
C:\Program Files\Rockstar Games\Grand Theft Auto V\NativeTrainer.ipdb
C:\Program Files\Rockstar Games\Grand Theft Auto V\NativeTrainer.iobj
^C:\Users\blond\Downloads\ScriptHookV_SDK_1.0.617.1a\samples\NativeTrainer\NativeTrainer.vcxproj
C:\Program Files\Rockstar Games\Grand Theft Auto V\NativeTrainer.ipdb
C:\Program Files\Rockstar Games\Grand Theft Auto V\NativeTrainer.iobj
^C:\Users\blond\Downloads\ScriptHookV_SDK_1.0.617.1a\samples\NativeTrainer\NativeTrainer.vcxproj
C:\Program Files\Rockstar Games\Grand Theft Auto V\NativeTrainer.ipdb
C:\Program Files\Rockstar Games\Grand Theft Auto V\NativeTrainer.iobj
^C:\Users\blond\Downloads\ScriptHookV_SDK_1.0.617.1a\samples\NativeTrainer\NativeTrainer.vcxproj
C:\Program Files\Rockstar Games\Grand Theft Auto V\NativeTrainer.ipdb
C:\Program Files\Rockstar Games\Grand Theft Auto V\NativeTrainer.iobj
^C:\Users\blond\Downloads\ScriptHookV_SDK_1.0.617.1a\samples\NativeTrainer\NativeTrainer.vcxproj
C:\Program Files\Rockstar Games\Grand Theft Auto V\NativeTrainer.ipdb
C:\Program Files\Rockstar Games\Grand Theft Auto V\NativeTrainer.iobj
^C:\Users\blond\Downloads\ScriptHookV_SDK_1.0.617.1a\samples\NativeTrainer\NativeTrainer.vcxproj
C:\Program Files\Rockstar Games\Grand Theft Auto V\NativeTrainer.ipdb
C:\Program Files\Rockstar Games\Grand Theft Auto V\NativeTrainer.iobj
^C:\Users\blond\Downloads\ScriptHookV_SDK_1.0.617.1a\samples\NativeTrainer\NativeTrainer.vcxproj
C:\Program Files\Rockstar Games\Grand Theft Auto V\NativeTrainer.ipdb
C:\Program Files\Rockstar Games\Grand Theft Auto V\NativeTrainer.iobj
